[gd_scene load_steps=3 format=2]

[ext_resource path="res://Snake.gd" type="Script" id=1]

[sub_resource type="RectangleShape2D" id=1]
extents = Vector2( 20, 20 )

[node name="Snake" type="Node2D"]
script = ExtResource( 1 )

[node name="body" type="KinematicBody2D" parent="."]

[node name="ColorRect" type="ColorRect" parent="body"]
margin_right = 40.0
margin_bottom = 40.0
color = Color( 1, 0.258824, 0, 1 )
__meta__ = {
"_edit_use_anchors_": false
}

[node name="CollisionShape2D" type="CollisionShape2D" parent="body"]
position = Vector2( 20.1075, 20.1075 )
shape = SubResource( 1 )
